check.vcd
$date
	Sun Sep 20 16:46:06 2020
$end
$version
	Icarus Verilog
$end
$timescale
	1ps
$end
$scope module testbench $end
$var reg 1 ! clk $end
$var reg 1 " reset $end
$var integer 32 # i [31:0] $end
$scope module CPU $end
$var wire 1 $ clear $end
$var wire 1 ! clk $end
$var wire 1 " reset $end
$var wire 32 % jump_address [31:0] $end
$var wire 32 & instruction [31:0] $end
$var wire 32 ' imm_data [31:0] $end
$var wire 1 ( hazard_detected $end
$var wire 32 ) data2 [31:0] $end
$var wire 32 * data1 [31:0] $end
$var wire 32 + branch_address [31:0] $end
$var wire 32 , br_in2 [31:0] $end
$var wire 32 - br_in1 [31:0] $end
$var wire 32 . WriteData [31:0] $end
$var wire 2 / WB_control [1:0] $end
$var wire 32 0 WB_Mem_out [31:0] $end
$var wire 5 1 WB_Dest_Reg [4:0] $end
$var wire 32 2 WB_ALU_out [31:0] $end
$var wire 5 3 Rt [4:0] $end
$var wire 5 4 Rs [4:0] $end
$var wire 1 5 RegWrite $end
$var wire 5 6 Rd [4:0] $end
$var wire 2 7 PC_src [1:0] $end
$var wire 32 8 PC_plus4 [31:0] $end
$var wire 32 9 Mem_out [31:0] $end
$var wire 4 : MEM_control [0:3] $end
$var wire 32 ; MEM_address [31:0] $end
$var wire 71 < MEM_WB_out [70:0] $end
$var wire 71 = MEM_WB_in [70:0] $end
$var wire 1 > MEM_RegWrite $end
$var wire 1 ? MEM_MemRead $end
$var wire 5 @ MEM_Dest_Reg [4:0] $end
$var wire 32 A MEM_Data_input [31:0] $end
$var wire 32 B MEM_ALU_out [31:0] $end
$var wire 2 C MEM2WB_control [1:0] $end
$var wire 64 D IF_ID_out [63:0] $end
$var wire 64 E IF_ID_in [63:0] $end
$var wire 1 F IF_Flush $end
$var wire 32 G ID_instruction [31:0] $end
$var wire 15 H ID_control_final [0:14] $end
$var wire 15 I ID_control [0:14] $end
$var wire 1 J ID_RegWrite $end
$var wire 32 K ID_PC [31:0] $end
$var wire 126 L ID_EXE_out [125:0] $end
$var wire 126 M ID_EXE_in [125:0] $end
$var wire 2 N Ex_FwdB [1:0] $end
$var wire 2 O Ex_FwdA [1:0] $end
$var wire 32 P EXE_in2 [31:0] $end
$var wire 32 Q EXE_in1 [31:0] $end
$var wire 32 R EXE_imm_data [31:0] $end
$var wire 32 S EXE_data2 [31:0] $end
$var wire 32 T EXE_data1 [31:0] $end
$var wire 15 U EXE_control [0:14] $end
$var wire 32 V EXE_ST_data [31:0] $end
$var wire 5 W EXE_Rt [4:0] $end
$var wire 5 X EXE_Rs [4:0] $end
$var wire 1 Y EXE_RegWrite $end
$var wire 5 Z EXE_Rd [4:0] $end
$var wire 1 [ EXE_MemRead $end
$var wire 73 \ EXE_MEM_out [72:0] $end
$var wire 73 ] EXE_MEM_in [72:0] $end
$var wire 5 ^ EXE_Dest_Reg [4:0] $end
$var wire 4 _ EXE2MEM_control [3:0] $end
$var wire 2 ` BranchOp [1:0] $end
$var wire 2 a Br_FwdB [1:0] $end
$var wire 2 b Br_FwdA [1:0] $end
$var wire 32 c ALU_out [31:0] $end
$scope module EXE_MEM $end
$var wire 1 d WriteEn $end
$var wire 1 ! clk $end
$var wire 73 e in [72:0] $end
$var wire 1 " reset $end
$var reg 73 f out [72:0] $end
$upscope $end
$scope module EXE_Stage $end
$var wire 5 g ID_Rd [4:0] $end
$var wire 5 h ID_Rt [4:0] $end
$var wire 32 i ID_imm_data [31:0] $end
$var wire 32 j Mem_input [31:0] $end
$var wire 1 ! clk $end
$var wire 15 k control_signals [14:0] $end
$var wire 1 " reset $end
$var wire 5 l shamt [4:0] $end
$var wire 32 m operand_2 [31:0] $end
$var wire 4 n ns_control [3:0] $end
$var wire 32 o in2 [31:0] $end
$var wire 32 p in1 [31:0] $end
$var wire 1 q RegWrite $end
$var wire 1 r RegDst $end
$var wire 1 s MemtoReg $end
$var wire 1 t MemWrite $end
$var wire 1 u MemRead $end
$var wire 1 v IsImm $end
$var wire 5 w Dest_Reg [4:0] $end
$var wire 4 x AluOp [3:0] $end
$var wire 32 y ALU_out [31:0] $end
$scope module ALU $end
$var wire 4 z AluOp [3:0] $end
$var wire 5 { shamt [4:0] $end
$var wire 32 | in2 [31:0] $end
$var wire 32 } in1 [31:0] $end
$var reg 32 ~ out [31:0] $end
$upscope $end
$scope module R_or_Imm $end
$var wire 32 !" in2 [31:0] $end
$var wire 1 v sel $end
$var wire 32 "" out [31:0] $end
$var wire 32 #" in1 [31:0] $end
$upscope $end
$scope module dest_select $end
$var wire 5 $" in1 [4:0] $end
$var wire 5 %" in2 [4:0] $end
$var wire 1 r sel $end
$var wire 5 &" out [4:0] $end
$upscope $end
$upscope $end
$scope module EXE_fwd_unit $end
$var wire 5 '" MEM_Rd [4:0] $end
$var wire 1 > MEM_RegWrite $end
$var wire 5 (" Rs [4:0] $end
$var wire 5 )" Rt [4:0] $end
$var wire 5 *" WB_Rd [4:0] $end
$var wire 1 5 WB_RegWrite $end
$var wire 2 +" FwdB [1:0] $end
$var wire 2 ," FwdA [1:0] $end
$upscope $end
$scope module Fwd_Alu1 $end
$var wire 32 -" in1 [31:0] $end
$var wire 32 ." in4 [31:0] $end
$var wire 2 /" sel [1:0] $end
$var wire 32 0" in3 [31:0] $end
$var wire 32 1" in2 [31:0] $end
$var reg 32 2" out [31:0] $end
$upscope $end
$scope module Fwd_Alu2 $end
$var wire 32 3" in1 [31:0] $end
$var wire 32 4" in4 [31:0] $end
$var wire 2 5" sel [1:0] $end
$var wire 32 6" in3 [31:0] $end
$var wire 32 7" in2 [31:0] $end
$var reg 32 8" out [31:0] $end
$upscope $end
$scope module Fwd_Br1 $end
$var wire 32 9" in4 [31:0] $end
$var wire 2 :" sel [1:0] $end
$var wire 32 ;" in3 [31:0] $end
$var wire 32 <" in2 [31:0] $end
$var wire 32 =" in1 [31:0] $end
$var reg 32 >" out [31:0] $end
$upscope $end
$scope module Fwd_Br2 $end
$var wire 32 ?" in4 [31:0] $end
$var wire 2 @" sel [1:0] $end
$var wire 32 A" in3 [31:0] $end
$var wire 32 B" in2 [31:0] $end
$var wire 32 C" in1 [31:0] $end
$var reg 32 D" out [31:0] $end
$upscope $end
$scope module Hazard_mux $end
$var wire 15 E" in2 [14:0] $end
$var wire 1 ( sel $end
$var wire 15 F" out [14:0] $end
$var wire 15 G" in1 [14:0] $end
$upscope $end
$scope module ID_EXE $end
$var wire 1 H" WriteEn $end
$var wire 1 ! clk $end
$var wire 126 I" in [125:0] $end
$var wire 1 " reset $end
$var reg 126 J" out [125:0] $end
$upscope $end
$scope module ID_Stage $end
$var wire 32 K" IF_ID_PC [31:0] $end
$var wire 5 L" Write_dest [4:0] $end
$var wire 1 ! clk $end
$var wire 32 M" in1 [31:0] $end
$var wire 32 N" in2 [31:0] $end
$var wire 32 O" instruction [31:0] $end
$var wire 1 " reset $end
$var wire 5 P" shamt [4:0] $end
$var wire 32 Q" sgn_extend_out [31:0] $end
$var wire 6 R" opcode [5:0] $end
$var wire 26 S" jump_offset [25:0] $end
$var wire 32 T" jump_address [31:0] $end
$var wire 16 U" immediate [15:0] $end
$var wire 6 V" funct [5:0] $end
$var wire 32 W" data2 [31:0] $end
$var wire 32 X" data1 [31:0] $end
$var wire 15 Y" control_signals [14:0] $end
$var wire 32 Z" branch_address [31:0] $end
$var wire 1 5 WriteEn $end
$var wire 32 [" WriteData [31:0] $end
$var wire 5 \" Rt [4:0] $end
$var wire 5 ]" Rs [4:0] $end
$var wire 1 ^" RegWrite $end
$var wire 1 _" RegDst $end
$var wire 5 `" Rd [4:0] $end
$var wire 1 a" MemtoReg $end
$var wire 1 b" MemWrite $end
$var wire 1 c" MemRead $end
$var wire 1 d" IsImm $end
$var wire 1 F IF_Flush $end
$var wire 2 e" Branch_taken [1:0] $end
$var wire 2 f" BranchOp [1:0] $end
$var wire 4 g" AluOp [3:0] $end
$scope module BR_ADDER $end
$var wire 32 h" in1 [31:0] $end
$var wire 32 i" in2 [31:0] $end
$var wire 32 j" out [31:0] $end
$upscope $end
$scope module br_condn_checker $end
$var wire 32 k" in1 [31:0] $end
$var wire 32 l" in2 [31:0] $end
$var wire 2 m" BranchOp [1:0] $end
$var reg 2 n" Branch_taken [1:0] $end
$var reg 1 F Flush $end
$upscope $end
$scope module jmp_address $end
$var wire 32 o" PC [31:0] $end
$var wire 26 p" offset [25:0] $end
$var wire 32 q" address [31:0] $end
$upscope $end
$scope module main_controller $end
$var wire 6 r" funct [5:0] $end
$var wire 6 s" opcode [5:0] $end
$var reg 4 t" AluOp [3:0] $end
$var reg 2 u" BranchOp [1:0] $end
$var reg 1 d" IsImm $end
$var reg 1 c" MemRead $end
$var reg 1 b" MemWrite $end
$var reg 1 a" MemtoReg $end
$var reg 1 _" RegDst $end
$var reg 1 ^" RegWrite $end
$upscope $end
$scope module register_file $end
$var wire 5 v" Rd [4:0] $end
$var wire 5 w" Rs [4:0] $end
$var wire 5 x" Rt [4:0] $end
$var wire 1 ! clk $end
$var wire 32 y" data1 [31:0] $end
$var wire 32 z" data2 [31:0] $end
$var wire 1 " reset $end
$var wire 1 5 WriteEn $end
$var wire 32 {" WriteData [31:0] $end
$var integer 32 |" i [31:0] $end
$upscope $end
$scope module sgn_extender $end
$var wire 16 }" in [15:0] $end
$var wire 32 ~" out [31:0] $end
$upscope $end
$upscope $end
$scope module IF_ID $end
$var wire 1 !# WriteEn $end
$var wire 1 ! clk $end
$var wire 64 "# in [63:0] $end
$var wire 1 $ reset $end
$var reg 64 ## out [63:0] $end
$upscope $end
$scope module IF_Stage $end
$var wire 2 $# PC_src [1:0] $end
$var wire 32 %# branch_address [31:0] $end
$var wire 1 ! clk $end
$var wire 32 &# jump_address [31:0] $end
$var wire 1 " reset $end
$var wire 1 ( stall $end
$var wire 32 '# instruction [31:0] $end
$var wire 32 (# PC_plus4 [31:0] $end
$var wire 32 )# PC_out [31:0] $end
$var wire 32 *# PC_in [31:0] $end
$scope module PC $end
$var wire 1 +# WriteEn $end
$var wire 1 ! clk $end
$var wire 1 " reset $end
$var wire 32 ,# in [31:0] $end
$var reg 32 -# out [31:0] $end
$upscope $end
$scope module PC_inc $end
$var wire 32 .# in1 [31:0] $end
$var wire 32 /# in2 [31:0] $end
$var wire 32 0# out [31:0] $end
$upscope $end
$scope module PC_source $end
$var wire 32 1# in1 [31:0] $end
$var wire 32 2# in2 [31:0] $end
$var wire 32 3# in3 [31:0] $end
$var wire 32 4# in4 [31:0] $end
$var wire 2 5# sel [1:0] $end
$var reg 32 6# out [31:0] $end
$upscope $end
$scope module instruction_memory $end
$var wire 32 7# address [31:0] $end
$var wire 1 ! clk $end
$var wire 1 " reset $end
$var wire 32 8# instruction [31:0] $end
$var wire 32 9# base_address [31:0] $end
$upscope $end
$upscope $end
$scope module MEM_Stage $end
$var wire 32 :# ALU_out [31:0] $end
$var wire 32 ;# Mem_address [31:0] $end
$var wire 32 <# Mem_input [31:0] $end
$var wire 1 ! clk $end
$var wire 4 =# control_signals [3:0] $end
$var wire 1 " reset $end
$var wire 2 ># WB_control [1:0] $end
$var wire 1 ?# RegWrite $end
$var wire 1 @# MemtoReg $end
$var wire 32 A# Mem_out [31:0] $end
$var wire 1 B# MemWrite $end
$var wire 1 C# MemRead $end
$scope module data_memory $end
$var wire 1 C# ReadEn $end
$var wire 1 B# WriteEn $end
$var wire 32 D# address [31:0] $end
$var wire 1 ! clk $end
$var wire 32 E# data_in [31:0] $end
$var wire 1 " reset $end
$var wire 32 F# out [31:0] $end
$var wire 32 G# base_address [31:0] $end
$var integer 32 H# i [31:0] $end
$upscope $end
$upscope $end
$scope module MEM_WB $end
$var wire 1 I# WriteEn $end
$var wire 1 ! clk $end
$var wire 71 J# in [70:0] $end
$var wire 1 " reset $end
$var reg 71 K# out [70:0] $end
$upscope $end
$scope module WB_Stage $end
$var wire 32 L# ALU_out [31:0] $end
$var wire 32 M# Mem_out [31:0] $end
$var wire 2 N# WB_control [1:0] $end
$var wire 1 ! clk $end
$var wire 1 " reset $end
$var wire 32 O# out [31:0] $end
$var wire 1 5 RegWrite $end
$var wire 1 P# MemtoReg $end
$scope module mem_or_r $end
$var wire 32 Q# in1 [31:0] $end
$var wire 32 R# in2 [31:0] $end
$var wire 1 P# sel $end
$var wire 32 S# out [31:0] $end
$upscope $end
$upscope $end
$scope module br_fwd_unit $end
$var wire 5 T# MEM_Rd [4:0] $end
$var wire 1 > MEM_RegWrite $end
$var wire 5 U# Rs [4:0] $end
$var wire 5 V# Rt [4:0] $end
$var wire 5 W# WB_Rd [4:0] $end
$var wire 1 5 WB_RegWrite $end
$var wire 2 X# FwdB [1:0] $end
$var wire 2 Y# FwdA [1:0] $end
$upscope $end
$scope module hazard_controller $end
$var wire 2 Z# BranchOp [1:0] $end
$var wire 5 [# EXE_Dest_Reg [4:0] $end
$var wire 1 [ EXE_MemRead $end
$var wire 1 Y EXE_RegWrite $end
$var wire 1 \# EXE_is_Load $end
$var wire 1 ]# EXE_match $end
$var wire 1 J ID_RegWrite $end
$var wire 5 ^# ID_Rs [4:0] $end
$var wire 5 _# ID_Rt [4:0] $end
$var wire 5 `# MEM_Dest_Reg [4:0] $end
$var wire 1 ? MEM_MemRead $end
$var wire 1 > MEM_RegWrite $end
$var wire 1 a# MEM_is_Load $end
$var wire 1 b# MEM_match $end
$var wire 1 ( hazard_detected $end
$var wire 1 c# IsBranch $end
$upscope $end
$upscope $end
$upscope $end
$enddefinitions $end
#0
$dumpvars
0c#
0b#
0a#
b0 `#
b0 _#
b0 ^#
0]#
0\#
b0 [#
b0 Z#
b0 Y#
b0 X#
b0 W#
b0 V#
b0 U#
b0 T#
b0 S#
b0 R#
b0 Q#
0P#
b0 O#
b0 N#
b0 M#
b0 L#
b0 K#
b0 J#
1I#
b10000000000 H#
b0 G#
b0 F#
b0 E#
b0 D#
0C#
0B#
b0 A#
0@#
0?#
b0 >#
b0 =#
b0 <#
b0 ;#
b0 :#
b0 9#
b1000000000000000000000000001 8#
b0 7#
b100 6#
b0 5#
bz 4#
b0 3#
b0 2#
b100 1#
b100 0#
b100 /#
b0 .#
b0 -#
b100 ,#
1+#
b100 *#
b0 )#
b100 (#
b1000000000000000000000000001 '#
b0 &#
b0 %#
b0 $#
b0 ##
b10000001000000000000000000000000001 "#
1!#
b0 ~"
b0 }"
b100000 |"
b0 {"
b0 z"
b0 y"
b0 x"
b0 w"
b0 v"
b0 u"
b1 t"
b0 s"
b0 r"
b0 q"
b0 p"
b0 o"
b0 n"
b0 m"
b0 l"
b0 k"
b0 j"
b0 i"
b0 h"
b1 g"
b0 f"
b0 e"
0d"
0c"
0b"
0a"
b0 `"
1_"
1^"
b0 ]"
b0 \"
b0 ["
b0 Z"
b100000010000010 Y"
b0 X"
b0 W"
b0 V"
b0 U"
b0 T"
b0 S"
b0 R"
b0 Q"
b0 P"
b0 O"
b0 N"
b0 M"
b0 L"
b0 K"
b0 J"
b100000010000010000000000000000000000000000000000000000000000000000000000000000000000000000000000000000000000000000000000000000 I"
1H"
b100000010000010 G"
b100000010000010 F"
b0 E"
b0 D"
b0 C"
b0 B"
b0 A"
b0 @"
bz ?"
b0 >"
b0 ="
b0 <"
b0 ;"
b0 :"
bz 9"
b0 8"
b0 7"
b0 6"
b0 5"
bz 4"
b0 3"
b0 2"
b0 1"
b0 0"
b0 /"
bz ."
b0 -"
b0 ,"
b0 +"
b0 *"
b0 )"
b0 ("
b0 '"
b0 &"
b0 %"
b0 $"
b0 #"
b0 ""
b0 !"
b0 ~
b0 }
b0 |
b0 {
b0 z
b0 y
b0 x
b0 w
0v
0u
0t
0s
0r
0q
b0 p
b0 o
b0 n
b0 m
b0 l
b0 k
b0 j
b0 i
b0 h
b0 g
b0 f
b0 e
1d
b0 c
b0 b
b0 a
b0 `
b0 _
b0 ^
b0 ]
b0 \
0[
b0 Z
0Y
b0 X
b0 W
b0 V
b0 U
b0 T
b0 S
b0 R
b0 Q
b0 P
b0 O
b0 N
b100000010000010000000000000000000000000000000000000000000000000000000000000000000000000000000000000000000000000000000000000000 M
b0 L
b0 K
1J
b100000010000010 I
b100000010000010 H
b0 G
0F
b10000001000000000000000000000000001 E
b0 D
b0 C
b0 B
b0 A
b0 @
0?
0>
b0 =
b0 <
b0 ;
b0 :
b0 9
b100 8
b0 7
b0 6
05
b0 4
b0 3
b0 2
b0 1
b0 0
b0 /
b0 .
b0 -
b0 ,
b0 +
b0 *
b0 )
0(
b0 '
b1000000000000000000000000001 &
b0 %
1$
b1111111111 #
1"
1!
$end
#5000
0!
#10000
b10000000000 H#
b100000 |"
1!
#15000
0$
0!
b100000 #
0"
#20000
1$
1F
b10 7
b10 e"
b10 n"
b10 $#
b10 5#
0J
b0 H
b0 F"
0^"
0_"
b1 `
b1 f"
b1 m"
b1 u"
b1 Z#
b0 I
b0 G"
b0 Y"
b0 g"
b0 t"
b100 i"
1]#
b1000000000000000000000000000000000000000000000000000000000000000000000000 ]
b1000000000000000000000000000000000000000000000000000000000000000000000000 e
b1000 _
b1000 n
1q
1r
b1 x
b1 z
b10 R"
b10 s"
b1000000000000000 M
b1000000000000000 I"
b1 '
b1 Q"
b1 ~"
b1 U"
b1 }"
b1 V"
b1 r"
b100 %
b100 T"
b100 q"
b100 &#
b100 3#
b1 S"
b1 p"
1Y
b100 *#
b100 ,#
b100 6#
b100000000000010000000000001010 &
b100000000000010000000000001010 '#
b100000000000010000000000001010 8#
b100 9#
b1000 +
b1000 Z"
b1000 j"
b1000 %#
b1000 2#
b100 K
b100 K"
b100 h"
b100 o"
b1000000000000000000000000001 G
b1000000000000000000000000001 O"
b100000010000010 U
b100000010000010 k
b100000100000000000010000000000001010 E
b100000100000000000010000000000001010 "#
b1000 8
b1000 (#
b1000 0#
b1000 1#
b100 )#
b100 -#
b100 .#
b100 7#
b10000001000000000000000000000000001 D
b10000001000000000000000000000000001 ##
b100000010000010000000000000000000000000000000000000000000000000000000000000000000000000000000000000000000000000000000000000000 L
b100000010000010000000000000000000000000000000000000000000000000000000000000000000000000000000000000000000000000000000000000000 J"
1!
#25000
0!
#30000
0$
0F
b0 7
b0 e"
b0 n"
b0 $#
b0 5#
1J
b100000010000010 H
b100000010000010 F"
1^"
1_"
b0 `
b0 f"
b0 m"
b0 u"
b0 Z#
b100000010000010 I
b100000010000010 G"
b100000010000010 Y"
b1 g"
b1 t"
1b#
0]#
b0 ]
b0 e
b0 _
b0 n
0q
0r
b0 x
b0 z
b0 i"
1>
b10000000000000000000000000000000000000000000000000000000000000000000000 =
b10000000000000000000000000000000000000000000000000000000000000000000000 J#
b10 C
b10 >#
1?#
0Y
b1000 *#
b1000 ,#
b1000 6#
b0 R"
b0 s"
b100000010000010000000000000000000000000000000000000000000000000000000000000000000000000000000000000000000000000000000000000000 M
b100000010000010000000000000000000000000000000000000000000000000000000000000000000000000000000000000000000000000000000000000000 I"
b0 '
b0 Q"
b0 ~"
b0 U"
b0 }"
b0 V"
b0 r"
b0 %
b0 T"
b0 q"
b0 &#
b0 3#
b0 S"
b0 p"
b1000 :
b1000 =#
b0 U
b0 k
b1 R
b1 i
b1 !"
b0 +
b0 Z"
b0 j"
b0 %#
b0 2#
b0 K
b0 K"
b0 h"
b0 o"
b0 G
b0 O"
b1000000000000000000000000000000000000000000000000000000000000000000000000 \
b1000000000000000000000000000000000000000000000000000000000000000000000000 f
b1000000000000000 L
b1000000000000000 J"
b0 D
b0 ##
1!
#35000
0!
#40000
b100001000000001 H
b100001000000001 F"
0_"
1d"
b100001000000001 I
b100001000000001 G"
b100001000000001 Y"
b100 g"
b100 t"
b1 ,
b1 D"
b1 N"
b1 l"
b101000 i"
1]#
b1000000000000000000000000000000000000000000000000000000000000000000000000 ]
b1000000000000000000000000000000000000000000000000000000000000000000000000 e
b1000 _
b1000 n
1q
1r
b1 x
b1 z
0b#
b1000 R"
b1000 s"
b1 )
b1 C"
b1 W"
b1 z"
b1 3
b1 \"
b1 x"
b1 V#
b1 _#
b100001000000001000000000000000000000000000000000000000000000000000000000000000100000000000000000000000000001010000000000100000 M
b100001000000001000000000000000000000000000000000000000000000000000000000000000100000000000000000000000000001010000000000100000 I"
b1010 '
b1010 Q"
b1010 ~"
b1010 U"
b1010 }"
b1010 V"
b1010 r"
b1000000000000101000 %
b1000000000000101000 T"
b1000000000000101000 q"
b1000000000000101000 &#
b1000000000000101000 3#
b10000000000001010 S"
b10000000000001010 p"
1Y
0>
b0 =
b0 J#
b0 C
b0 >#
0?#
15
b1100 *#
b1100 ,#
b1100 6#
b10001000000100000 &
b10001000000100000 '#
b10001000000100000 8#
b1000 9#
b110000 +
b110000 Z"
b110000 j"
b110000 %#
b110000 2#
b1000 K
b1000 K"
b1000 h"
b1000 o"
b100000000000010000000000001010 G
b100000000000010000000000001010 O"
b100000010000010 U
b100000010000010 k
b0 R
b0 i
b0 !"
b0 :
b0 =#
b10 /
b10 N#
b110000000000000000010001000000100000 E
b110000000000000000010001000000100000 "#
b1100 8
b1100 (#
b1100 0#
b1100 1#
b1000 )#
b1000 -#
b1000 .#
b1000 7#
b100000100000000000010000000000001010 D
b100000100000000000010000000000001010 ##
b100000010000010000000000000000000000000000000000000000000000000000000000000000000000000000000000000000000000000000000000000000 L
b100000010000010000000000000000000000000000000000000000000000000000000000000000000000000000000000000000000000000000000000000000 J"
b0 \
b0 f
b10000000000000000000000000000000000000000000000000000000000000000000000 <
b10000000000000000000000000000000000000000000000000000000000000000000000 K#
1!
#45000
0!
#50000
b100001000000010 H
b100001000000010 F"
b1010 c
b1010 y
b1010 ~
1_"
b100001000000010 I
b100001000000010 G"
b100001000000010 Y"
0d"
b1 ^
b1 w
b1 &"
b1 [#
1b#
1v
0r
b100 x
b100 z
b1010 m
b1010 |
b1010 ""
b100000010000000 i"
05
1>
b10000000000000000000000000000000000000000000000000000000000000000000000 =
b10000000000000000000000000000000000000000000000000000000000000000000000 J#
b10 C
b10 >#
1?#
b1000000000000000000000000000000010100000000000000000000000000000000100001 ]
b1000000000000000000000000000000010100000000000000000000000000000000100001 e
b1 V
b1 j
b1 P
b1 o
b1 #"
b1 8"
b0 R"
b0 s"
b10 6
b10 `"
b100001000000010000000000000000000000000000000000000000000000000000000000000000100000000000000000001000000100000000000000100010 M
b100001000000010000000000000000000000000000000000000000000000000000000000000000100000000000000000001000000100000000000000100010 I"
b1000000100000 '
b1000000100000 Q"
b1000000100000 ~"
b1000000100000 U"
b1000000100000 }"
b100000 V"
b100000 r"
b1000100000010000000 %
b1000100000010000000 T"
b1000100000010000000 q"
b1000100000010000000 &#
b1000100000010000000 3#
b10001000000100000 S"
b10001000000100000 p"
b0 /
b0 N#
b1000 :
b1000 =#
b100001000000001 U
b100001000000001 k
b1 S
b1 3"
b1010 R
b1010 i
b1010 !"
b1 W
b1 h
b1 $"
b1 )"
b100000010001100 +
b100000010001100 Z"
b100000010001100 j"
b100000010001100 %#
b100000010001100 2#
b1100 K
b1100 K"
b1100 h"
b1100 o"
b10001000000100000 G
b10001000000100000 O"
b10000 *#
b10000 ,#
b10000 6#
b10001100000100010 &
b10001100000100010 '#
b10001100000100010 8#
b1100 9#
b0 <
b0 K#
b1000000000000000000000000000000000000000000000000000000000000000000000000 \
b1000000000000000000000000000000000000000000000000000000000000000000000000 f
b100001000000001000000000000000000000000000000000000000000000000000000000000000100000000000000000000000000001010000000000100000 L
b100001000000001000000000000000000000000000000000000000000000000000000000000000100000000000000000000000000001010000000000100000 J"
b110000000000000000010001000000100000 D
b110000000000000000010001000000100000 ##
b1000000000000000000010001100000100010 E
b1000000000000000000010001100000100010 "#
b10000 8
b10000 (#
b10000 0#
b10000 1#
b1100 )#
b1100 -#
b1100 .#
b1100 7#
1!
#55000
0!
#60000
b100001010000010 H
b100001010000010 F"
b100001010000010 I
b100001010000010 G"
b100001010000010 Y"
b101 g"
b101 t"
b1010 c
b1010 y
b1010 ~
0]#
b1010 V
b1010 j
b1010 P
b1010 o
b1010 #"
b1010 8"
b1010 ,
b1010 D"
b1010 N"
b1010 l"
b1000000000000000000000000000000010100000000000000000000000000000101000010 ]
b1000000000000000000000000000000010100000000000000000000000000000101000010 e
b10 ^
b10 w
b10 &"
b10 [#
b0 Q
b0 p
b0 }
b0 2"
b1 N
b1 +"
b1 5"
b0 -
b0 >"
b0 M"
b0 k"
b1 a
b1 @"
b1 X#
b110000010001000 i"
0v
1r
b0 O
b0 ,"
b0 /"
b0 b
b0 :"
b0 Y#
b11 6
b11 `"
b100001010000010000000000000000000000000000000000000000000000000000000000000000100000000000000000001100000100010000000000100011 M
b100001010000010000000000000000000000000000000000000000000000000000000000000000100000000000000000001100000100010000000000100011 I"
b1100000100010 '
b1100000100010 Q"
b1100000100010 ~"
b1100000100010 U"
b1100000100010 }"
b100010 V"
b100010 r"
b1000110000010001000 %
b1000110000010001000 T"
b1000110000010001000 q"
b1000110000010001000 &#
b1000110000010001000 3#
b10001100000100010 S"
b10001100000100010 p"
b1010 m
b1010 |
b1010 ""
b1000 G#
15
b10100 *#
b10100 ,#
b10100 6#
b10000110010000000100100 &
b10000110010000000100100 '#
b10000110010000000100100 8#
b10000 9#
b110000010011000 +
b110000010011000 Z"
b110000010011000 j"
b110000010011000 %#
b110000010011000 2#
b10000 K
b10000 K"
b10000 h"
b10000 o"
b10001100000100010 G
b10001100000100010 O"
b100001000000010 U
b100001000000010 k
b1000000100000 R
b1000000100000 i
b1000000100000 !"
b10 Z
b10 g
b10 %"
b1010 B
b1010 1"
b1010 7"
b1010 <"
b1010 B"
b1010 :#
b1010 ;
b1010 ;#
b1010 D#
b1 A
b1 <#
b1 E#
b10000000000000000000000000000010100000000000000000000000000000000000001 =
b10000000000000000000000000000010100000000000000000000000000000000000001 J#
b1 @
b1 '"
b1 T#
b1 `#
b10 /
b10 N#
b1010000000000010000110010000000100100 E
b1010000000000010000110010000000100100 "#
b10100 8
b10100 (#
b10100 0#
b10100 1#
b10000 )#
b10000 -#
b10000 .#
b10000 7#
b1000000000000000000010001100000100010 D
b1000000000000000000010001100000100010 ##
b100001000000010000000000000000000000000000000000000000000000000000000000000000100000000000000000001000000100000000000000100010 L
b100001000000010000000000000000000000000000000000000000000000000000000000000000100000000000000000001000000100000000000000100010 J"
b1000000000000000000000000000000010100000000000000000000000000000000100001 \
b1000000000000000000000000000000010100000000000000000000000000000000100001 f
b10000000000000000000000000000000000000000000000000000000000000000000000 <
b10000000000000000000000000000000000000000000000000000000000000000000000 K#
1!
#65000
0!
#70000
b100001100000010 H
b100001100000010 F"
b11111111111111111111111111110110 c
b11111111111111111111111111110110 y
b11111111111111111111111111110110 ~
b100001100000010 I
b100001100000010 G"
b100001100000010 Y"
b110 g"
b110 t"
b1010 m
b1010 |
b1010 ""
b0 Q
b0 p
b0 }
b0 2"
b1010 V
b1010 j
b1010 P
b1010 o
b1010 #"
b1010 8"
b11 ,
b11 D"
b11 N"
b11 l"
b0 O
b0 ,"
b0 /"
b1 b
b1 :"
b1 Y#
b10 N
b10 +"
b10 5"
b0 a
b0 @"
b0 X#
1]#
b101 x
b101 z
b1010 -
b1010 >"
b1010 M"
b1010 k"
b1000000010010000 i"
b1010 .
b1010 0"
b1010 6"
b1010 ;"
b1010 A"
b1010 ["
b1010 {"
b1010 O#
b1010 S#
b1000111111111111111111111111111101100000000000000000000000000000101000011 ]
b1000111111111111111111111111111101100000000000000000000000000000101000011 e
b11 ^
b11 w
b11 &"
b11 [#
b10 *
b10 ="
b10 X"
b10 y"
b10 4
b10 ]"
b10 w"
b10 U#
b10 ^#
b11 )
b11 C"
b11 W"
b11 z"
b11 3
b11 \"
b11 x"
b11 V#
b11 _#
b100 6
b100 `"
b100001100000010000000000000000000000000000000100000000000000000000000000000001100000000000000000010000000100100000100001100100 M
b100001100000010000000000000000000000000000000100000000000000000000000000000001100000000000000000010000000100100000100001100100 I"
b10000000100100 '
b10000000100100 Q"
b10000000100100 ~"
b10000000100100 U"
b10000000100100 }"
b100100 V"
b100100 r"
b1000011001000000010010000 %
b1000011001000000010010000 T"
b1000011001000000010010000 q"
b1000011001000000010010000 &#
b1000011001000000010010000 3#
b10000110010000000100100 S"
b10000110010000000100100 p"
b1010 2
b1010 L#
b1010 Q#
b1 1
b1 *"
b1 L"
b1 v"
b1 W#
b1010 A
b1010 <#
b1010 E#
b10000000000000000000000000000010100000000000000000000000000000000000010 =
b10000000000000000000000000000010100000000000000000000000000000000000010 J#
b10 @
b10 '"
b10 T#
b10 `#
b100001010000010 U
b100001010000010 k
b1100000100010 R
b1100000100010 i
b1100000100010 !"
b11 Z
b11 g
b11 %"
b1000000010100100 +
b1000000010100100 Z"
b1000000010100100 j"
b1000000010100100 %#
b1000000010100100 2#
b10100 K
b10100 K"
b10100 h"
b10100 o"
b10000110010000000100100 G
b10000110010000000100100 O"
b11000 *#
b11000 ,#
b11000 6#
b100000000001011111110111001100 &
b100000000001011111110111001100 '#
b100000000001011111110111001100 8#
b10100 9#
b10000000000000000000000000000010100000000000000000000000000000000000001 <
b10000000000000000000000000000010100000000000000000000000000000000000001 K#
b1000000000000000000000000000000010100000000000000000000000000000101000010 \
b1000000000000000000000000000000010100000000000000000000000000000101000010 f
b100001010000010000000000000000000000000000000000000000000000000000000000000000100000000000000000001100000100010000000000100011 L
b100001010000010000000000000000000000000000000000000000000000000000000000000000100000000000000000001100000100010000000000100011 J"
b1010000000000010000110010000000100100 D
b1010000000000010000110010000000100100 ##
b1100000100000000001011111110111001100 E
b1100000100000000001011111110111001100 "#
b11000 8
b11000 (#
b11000 0#
b11000 1#
b10100 )#
b10100 -#
b10100 .#
b10100 7#
1!
#75000
0!
